ignore: qam16/component/work/COREFIR_PF_C0/COREFIR_PF_C0_0/rtl/vhdl/test/user/wave.vcd
$date
  Mon Jul 28 13:50:36 2025
$end
$version
  GHDL v0
$end
$timescale
  1 fs
$end
$scope module standard $end
$upscope $end
$scope module std_logic_1164 $end
$upscope $end
$scope module numeric_std $end
$upscope $end
$scope module math_real $end
$upscope $end
$scope module textio $end
$upscope $end
$scope module std_logic_textio $end
$upscope $end
$scope module bhv_pack $end
$upscope $end
$scope module decm_rtl_pack $end
$upscope $end
$scope module coreparameters_tgi $end
$upscope $end
$scope module corefir_pf_c0_corefir_pf_c0_0_enumfir_coefs $end
$upscope $end
$scope module testbench $end
$var integer 32 ! coef_set $end
$var reg 1 " clk $end
$var reg 1 # ngrst $end
$var reg 1 $ inp_data_over $end
$var reg 1 % datai_valid $end
$var reg 1 & spike $end
$var reg 1 ' systola $end
$var reg 1 ( ctrl_leading_zeros $end
$var reg 1 ) coef_on $end
$var reg 1 * increment_coef_set $end
$var reg 1 + reset_coef_count $end
$var reg 1 , shift_in_coefs $end
$var reg 4 - coef_set_count[3:0] $end
$var reg 4 . set_count[3:0] $end
$var reg 1 / firo_xbit $end
$var reg 1 0 coef_set_over $end
$var reg 1 1 reload_coef_over $end
$var reg 1 2 coefi_valid $end
$var reg 1 3 firo_valid $end
$var reg 11 4 reload_coef_count[10:0] $end
$var reg 5 5 inp_count[4:0] $end
$var reg 4 6 inpvector[3:0] $end
$var reg 4 7 test_data_w[3:0] $end
$var reg 8 8 coefi[7:0] $end
$var reg 8 9 coefii[7:0] $end
$var reg 48 : firo[47:0] $end
$var reg 48 ; gold_firo[47:0] $end
$var reg 48 < gold_fifo_out[47:0] $end
$comment fifo is not handled $end
$var integer 32 = wr $end
$var integer 32 > rd $end
$var integer 32 ? error_count $end
$var integer 32 @ firo_count $end
$var reg 1 A rstnn $end
$var reg 1 B halt $end
$var reg 1 C start_datai_valid1 $end
$var reg 1 D start_datai_valid2 $end
$var reg 1 E start_datai_valid $end
$var reg 1 F datai_valid_freq $end
$var reg 1 G data_valid $end
$var reg 1 H data_valid_tb $end
$var reg 4 I datai[3:0] $end
$var reg 4 J datai_tb[3:0] $end
$var reg 4 K datai_local[3:0] $end
$var reg 1 L swap_page $end
$var reg 1 M ready_tb $end
$var reg 1 N refresh_done $end
$var reg 1 O coef_ref $end
$var reg 4 P coef_sel[3:0] $end
$var integer 32 Q coef_sel_int $end
$var integer 32 R z $end
$var integer 32 S coefi_count $end
$var reg 1 T start_samples $end
$var reg 1 U start_samples_tb $end
$var reg 1 V stop_samples $end
$var reg 1 W stop_samples_tb $end
$var reg 1 X start_coefi $end
$var reg 1 Y stop_coefi $end
$comment coef_arr is not handled $end
$comment coef_arr_act is not handled $end
$comment data_arr is not handled $end
$comment coef_flat_arr is not handled $end
$comment firo_arr_fifo is not handled $end
$var integer 32 Z sample_count $end
$var integer 32 [ sample_count_tb $end
$var integer 32 \ data_valid_timer $end
$var integer 32 ] data_valid_timer_tb $end
$var reg 1 ^ good_datai_valid_slim $end
$var reg 1 _ good_datai_valid_slim_tb $end
$var reg 1 ` datai_valid_slim $end
$var reg 1 a datai_valid_slim_tb $end
$var reg 1 b rstn $end
$var reg 1 c rsti $end
$var reg 1 d ready $end
$var reg 1 e intrp_cycle_end_w $end
$var reg 1 f intrp_cycle $end
$var reg 1 g rclk $end
$scope module tb_enum $end
$scope module uut_0 $end
$upscope $end
$scope module clock_0 $end
$var reg 1 h halt $end
$var reg 1 i clk $end
$var reg 1 j ngrst $end
$var reg 1 k clk_w $end
$var reg 1 l ngrst_w $end
$upscope $end
$scope module xhdl7 $end
$upscope $end
$scope module systola_gen_0 $end
$var reg 1 m ngrst $end
$var reg 1 n rst $end
$var reg 1 o clk $end
$var reg 1 p clken $end
$var reg 1 q inp $end
$var reg 1 r outp $end
$var reg 7 s delayline[0:6] $end
$scope module gendel $end
$upscope $end
$upscope $end
$scope module spike_gen_0 $end
$var reg 1 t ngrst $end
$var reg 1 u rst $end
$var reg 1 v clk $end
$var reg 1 w clken $end
$var reg 1 x inp $end
$var reg 1 y outp $end
$var reg 1 z inp_tick $end
$var reg 1 { rise_edge $end
$var reg 1 | fall_edge $end
$upscope $end
$scope module count_datai_valid_0 $end
$var reg 1 } ngrst $end
$var reg 1 !" rst $end
$var reg 1 "" clk $end
$var reg 1 #" clken $end
$var reg 1 $" cnten $end
$var reg 5 %" q[4:0] $end
$var reg 1 &" dc $end
$var reg 5 '" count[4:0] $end
$upscope $end
$scope module inptestvect_0 $end
$upscope $end
$scope module count_coef_set_0 $end
$var reg 1 (" ngrst $end
$var reg 1 )" rst $end
$var reg 1 *" clk $end
$var reg 1 +" clken $end
$var reg 1 ," cnten $end
$var reg 4 -" q[3:0] $end
$var reg 1 ." dc $end
$var reg 4 /" count[3:0] $end
$upscope $end
$scope module count_reload_coef_0 $end
$var reg 1 0" ngrst $end
$var reg 1 1" rst $end
$var reg 1 2" clk $end
$var reg 1 3" clken $end
$var reg 1 4" cnten $end
$var reg 11 5" q[10:0] $end
$var reg 1 6" dc $end
$var reg 11 7" count[10:0] $end
$upscope $end
$scope module reload_gen_0 $end
$var reg 11 8" coef_count[10:0] $end
$var reg 8 9" coef_outp[7:0] $end
$var reg 18 :" coef18[17:0] $end
$var integer 32 ;" coef_count_int $end
$upscope $end
$scope module bhv_gold_fir_0 $end
$var reg 1 <" ngrst $end
$var reg 1 =" rstn $end
$var reg 1 >" clk $end
$var reg 4 ?" set_count[3:0] $end
$var reg 1 @" datai_valid $end
$var reg 4 A" datai[3:0] $end
$var reg 48 B" firo[47:0] $end
$comment coef_arr is not handled $end
$comment data_arr is not handled $end
$comment cin is not handled $end
$var integer 32 C" shift_loop $end
$var integer 32 D" convolve_loop $end
$var reg 16 E" prod[15:0] $end
$var reg 4 F" mcandd[3:0] $end
$var reg 8 G" mcandc[7:0] $end
$var integer 32 H" set_count_int $end
$scope module reload_coef2array $end
$upscope $end
$scope module bhv_taps(0) $end
$scope module a_bhv_mac $end
$var reg 18 I" a[17:0] $end
$var reg 18 J" b[17:0] $end
$var reg 48 K" cin[47:0] $end
$var reg 48 L" p[47:0] $end
$var reg 36 M" product[35:0] $end
$var reg 48 N" product48[47:0] $end
$upscope $end
$upscope $end
$scope module bhv_taps(1) $end
$scope module a_bhv_mac $end
$var reg 18 O" a[17:0] $end
$var reg 18 P" b[17:0] $end
$var reg 48 Q" cin[47:0] $end
$var reg 48 R" p[47:0] $end
$var reg 36 S" product[35:0] $end
$var reg 48 T" product48[47:0] $end
$upscope $end
$upscope $end
$scope module bhv_taps(2) $end
$scope module a_bhv_mac $end
$var reg 18 U" a[17:0] $end
$var reg 18 V" b[17:0] $end
$var reg 48 W" cin[47:0] $end
$var reg 48 X" p[47:0] $end
$var reg 36 Y" product[35:0] $end
$var reg 48 Z" product48[47:0] $end
$upscope $end
$upscope $end
$scope module bhv_taps(3) $end
$scope module a_bhv_mac $end
$var reg 18 [" a[17:0] $end
$var reg 18 \" b[17:0] $end
$var reg 48 ]" cin[47:0] $end
$var reg 48 ^" p[47:0] $end
$var reg 36 _" product[35:0] $end
$var reg 48 `" product48[47:0] $end
$upscope $end
$upscope $end
$scope module bhv_taps(4) $end
$scope module a_bhv_mac $end
$var reg 18 a" a[17:0] $end
$var reg 18 b" b[17:0] $end
$var reg 48 c" cin[47:0] $end
$var reg 48 d" p[47:0] $end
$var reg 36 e" product[35:0] $end
$var reg 48 f" product48[47:0] $end
$upscope $end
$upscope $end
$scope module bhv_taps(5) $end
$scope module a_bhv_mac $end
$var reg 18 g" a[17:0] $end
$var reg 18 h" b[17:0] $end
$var reg 48 i" cin[47:0] $end
$var reg 48 j" p[47:0] $end
$var reg 36 k" product[35:0] $end
$var reg 48 l" product48[47:0] $end
$upscope $end
$upscope $end
$scope module bhv_taps(6) $end
$scope module a_bhv_mac $end
$var reg 18 m" a[17:0] $end
$var reg 18 n" b[17:0] $end
$var reg 48 o" cin[47:0] $end
$var reg 48 p" p[47:0] $end
$var reg 36 q" product[35:0] $end
$var reg 48 r" product48[47:0] $end
$upscope $end
$upscope $end
$scope module bhv_taps(7) $end
$scope module a_bhv_mac $end
$var reg 18 s" a[17:0] $end
$var reg 18 t" b[17:0] $end
$var reg 48 u" cin[47:0] $end
$var reg 48 v" p[47:0] $end
$var reg 36 w" product[35:0] $end
$var reg 48 x" product48[47:0] $end
$upscope $end
$upscope $end
$scope module bhv_taps(8) $end
$scope module a_bhv_mac $end
$var reg 18 y" a[17:0] $end
$var reg 18 z" b[17:0] $end
$var reg 48 {" cin[47:0] $end
$var reg 48 |" p[47:0] $end
$var reg 36 }" product[35:0] $end
$var reg 48 !# product48[47:0] $end
$upscope $end
$upscope $end
$scope module bhv_taps(9) $end
$scope module a_bhv_mac $end
$var reg 18 "# a[17:0] $end
$var reg 18 ## b[17:0] $end
$var reg 48 $# cin[47:0] $end
$var reg 48 %# p[47:0] $end
$var reg 36 &# product[35:0] $end
$var reg 48 '# product48[47:0] $end
$upscope $end
$upscope $end
$scope module bhv_taps(10) $end
$scope module a_bhv_mac $end
$var reg 18 (# a[17:0] $end
$var reg 18 )# b[17:0] $end
$var reg 48 *# cin[47:0] $end
$var reg 48 +# p[47:0] $end
$var reg 36 ,# product[35:0] $end
$var reg 48 -# product48[47:0] $end
$upscope $end
$upscope $end
$scope module bhv_taps(11) $end
$scope module a_bhv_mac $end
$var reg 18 .# a[17:0] $end
$var reg 18 /# b[17:0] $end
$var reg 48 0# cin[47:0] $end
$var reg 48 1# p[47:0] $end
$var reg 36 2# product[35:0] $end
$var reg 48 3# product48[47:0] $end
$upscope $end
$upscope $end
$upscope $end
$upscope $end
$upscope $end
$enddefinitions $end
#0
b0 !
0"
0#
0$
0%
0&
0'
1(
0)
0*
1+
0,
b0000 -
b0000 .
U/
00
01
02
U3
b00000000000 4
b00000 5
bUUUU 6
b0000 7
b11111111 8
b11111111 9
bUUUUUUUUUUUUUUUUUUUUUUUUUUUUUUUUUUUUUUUUUUUUUUUU :
b000000000000000000000000000000000000000000000000 ;
bUUUUUUUUUUUUUUUUUUUUUUUUUUUUUUUUUUUUUUUUUUUUUUUU <
b11111111111111111111111111111111 =
b0 >
b0 ?
b0 @
0A
0B
0C
0D
0E
1F
UG
UH
bUUUU I
bUUUU J
bUUUU K
UL
UM
UN
UO
bUUUU P
b10000000000000000000000000000000 Q
b10000000000000000000000000000000 R
b0 S
UT
UU
UV
UW
UX
UY
b10000000000000000000000000000000 Z
b10000000000000000000000000000000 [
b10000000000000000000000000000000 \
b10000000000000000000000000000000 ]
U^
U_
U`
Ua
1b
Uc
Ud
Ue
Uf
Ug
0h
0i
0j
0k
0l
0m
0n
0o
1p
0q
0r
b0000000 s
0t
0u
0v
0w
0x
0y
0z
0{
0|
0}
1!"
0""
1#"
0$"
b00000 %"
0&"
b00000 '"
0("
0)"
0*"
1+"
0,"
b0000 -"
0."
b0000 /"
00"
11"
02"
13"
04"
b00000000000 5"
06"
b00000000000 7"
b00000000000 8"
b11111111 9"
bUUUUUUUUUUUUUUUUUU :"
b1 ;"
0<"
1="
0>"
b0000 ?"
0@"
b0000 A"
b000000000000000000000000000000000000000000000000 B"
b10000000000000000000000000000000 C"
b10000000000000000000000000000000 D"
bUUUUUUUUUUUUUUUU E"
bUUUU F"
bUUUUUUUU G"
b0 H"
b111111111111111111 I"
b000000000000000000 J"
b000000000000000000000000000000000000000000000000 K"
b000000000000000000000000000000000000000000000000 L"
b000000000000000000000000000000000000 M"
b000000000000000000000000000000000000000000000000 N"
b111111111111111111 O"
b000000000000000000 P"
b000000000000000000000000000000000000000000000000 Q"
b000000000000000000000000000000000000000000000000 R"
b000000000000000000000000000000000000 S"
b000000000000000000000000000000000000000000000000 T"
b111111111111111111 U"
b000000000000000000 V"
b000000000000000000000000000000000000000000000000 W"
b000000000000000000000000000000000000000000000000 X"
b000000000000000000000000000000000000 Y"
b000000000000000000000000000000000000000000000000 Z"
b111111111111111111 ["
b000000000000000000 \"
b000000000000000000000000000000000000000000000000 ]"
b000000000000000000000000000000000000000000000000 ^"
b000000000000000000000000000000000000 _"
b000000000000000000000000000000000000000000000000 `"
b111111111111111111 a"
b000000000000000000 b"
b000000000000000000000000000000000000000000000000 c"
b000000000000000000000000000000000000000000000000 d"
b000000000000000000000000000000000000 e"
b000000000000000000000000000000000000000000000000 f"
b111111111111111111 g"
b000000000000000000 h"
b000000000000000000000000000000000000000000000000 i"
b000000000000000000000000000000000000000000000000 j"
b000000000000000000000000000000000000 k"
b000000000000000000000000000000000000000000000000 l"
b111111111111111111 m"
b000000000000000000 n"
b000000000000000000000000000000000000000000000000 o"
b000000000000000000000000000000000000000000000000 p"
b000000000000000000000000000000000000 q"
b000000000000000000000000000000000000000000000000 r"
b111111111111111111 s"
b000000000000000000 t"
b000000000000000000000000000000000000000000000000 u"
b000000000000000000000000000000000000000000000000 v"
b000000000000000000000000000000000000 w"
b000000000000000000000000000000000000000000000000 x"
b111111111111111111 y"
b000000000000000000 z"
b000000000000000000000000000000000000000000000000 {"
b000000000000000000000000000000000000000000000000 |"
b000000000000000000000000000000000000 }"
b000000000000000000000000000000000000000000000000 !#
b111111111111111111 "#
b000000000000000000 ##
b000000000000000000000000000000000000000000000000 $#
b000000000000000000000000000000000000000000000000 %#
b000000000000000000000000000000000000 &#
b000000000000000000000000000000000000000000000000 '#
b111111111111111111 (#
b000000000000000000 )#
b000000000000000000000000000000000000000000000000 *#
b000000000000000000000000000000000000000000000000 +#
b000000000000000000000000000000000000 ,#
b000000000000000000000000000000000000000000000000 -#
b111111111111111111 .#
b000000000000000000 /#
b000000000000000000000000000000000000000000000000 0#
b000000000000000000000000000000000000000000000000 1#
b000000000000000000000000000000000000 2#
b000000000000000000000000000000000000000000000000 3#
#5000000
1"
1i
1k
1o
1v
1""
1*"
12"
1>"
#10000000
0"
0i
0k
0o
0v
0""
0*"
02"
0>"
#15000000
1"
1i
1k
1o
1v
1""
1*"
12"
1>"
#20000000
0"
0i
0k
0o
0v
0""
0*"
02"
0>"
#24000000
1#
1j
1l
1m
1t
1}
1("
10"
1<"
#25000000
1"
1%
1C
1i
1k
1o
1q
1v
1""
1$"
1*"
12"
1>"
1@"
#30000000
0"
0i
0k
0o
0v
0""
0*"
02"
0>"
#35000000
1"
0+
1,
12
b0 =
1i
1k
1o
b1000000 s
1v
1""
1*"
01"
12"
14"
1>"
#40000000
0"
0i
0k
0o
0v
0""
0*"
02"
0>"
#45000000
1"
b00000000001 4
b000000000000000000000000000000000000000000000000 <
b1 =
1i
1k
1o
b1100000 s
1v
1""
1*"
12"
b00000000001 5"
b00000000001 7"
b00000000001 8"
b10 ;"
1>"
#50000000
0"
0i
0k
0o
0v
0""
0*"
02"
0>"
#55000000
1"
b00000000010 4
b10 =
1i
1k
1o
b1110000 s
1v
1""
1*"
12"
b00000000010 5"
b00000000010 7"
b00000000010 8"
b11 ;"
1>"
#60000000
0"
0i
0k
0o
0v
0""
0*"
02"
0>"
#65000000
1"
b00000000011 4
b11 =
1i
1k
1o
b1111000 s
1v
1""
1*"
12"
b00000000011 5"
b00000000011 7"
b00000000011 8"
b100 ;"
1>"
#70000000
0"
0i
0k
0o
0v
0""
0*"
02"
0>"
#75000000
1"
b00000000100 4
b100 =
1i
1k
1o
b1111100 s
1v
1""
1*"
12"
b00000000100 5"
b00000000100 7"
b00000000100 8"
b101 ;"
1>"
#80000000
0"
0i
0k
0o
0v
0""
0*"
02"
0>"
#85000000
1"
11
b00000000101 4
b101 =
1i
1k
1o
b1111110 s
1v
1""
1*"
12"
b00000000101 5"
16"
b00000000101 7"
b00000000101 8"
b110 ;"
1>"
#90000000
0"
0i
0k
0o
0v
0""
0*"
02"
0>"
#95000000
1"
1'
0,
01
02
b00000000110 4
b110 =
1i
1k
1o
1r
b1111111 s
1v
1w
1""
1*"
12"
04"
b00000000110 5"
06"
b00000000110 7"
b00000000110 8"
b1 ;"
1>"
#100000000
0"
0i
0k
0o
0v
0""
0*"
02"
0>"
#105000000
1"
b111 =
1i
1k
1o
1v
1""
1*"
12"
1>"
#110000000
0"
0i
0k
0o
0v
0""
0*"
02"
0>"
#115000000
1"
1)
b1000 =
1i
1k
1o
1v
1""
1*"
12"
1>"
#120000000
0"
0i
0k
0o
0v
0""
0*"
02"
0>"
#125000000
1"
0)
b1001 =
1i
1k
1o
1v
1""
1*"
12"
1>"
#130000000
0"
0i
0k
0o
0v
0""
0*"
02"
0>"
#135000000
1"
b1010 =
1i
1k
1o
1v
1""
1*"
12"
1>"
#140000000
0"
0i
0k
0o
0v
0""
0*"
02"
0>"
#145000000
1"
b1011 =
1i
1k
1o
1v
1""
1*"
12"
1>"
#150000000
0"
0i
0k
0o
0v
0""
0*"
02"
0>"
#155000000
1"
b1100 =
1i
1k
1o
1v
1""
1*"
12"
1>"
#160000000
0"
0i
0k
0o
0v
0""
0*"
02"
0>"
#165000000
1"
b1101 =
1i
1k
1o
1v
1""
1*"
12"
1>"
#170000000
0"
0i
0k
0o
0v
0""
0*"
02"
0>"
#175000000
1"
b1110 =
1i
1k
1o
1v
1""
1*"
12"
1>"
#180000000
0"
0i
0k
0o
0v
0""
0*"
02"
0>"
#185000000
1"
b1111 =
1i
1k
1o
1v
1""
1*"
12"
1>"
#190000000
0"
0i
0k
0o
0v
0""
0*"
02"
0>"
#195000000
1"
b10000 =
1i
1k
1o
1v
1""
1*"
12"
1>"
#200000000
0"
0i
0k
0o
0v
0""
0*"
02"
0>"
#205000000
1"
b10001 =
1i
1k
1o
1v
1""
1*"
12"
1>"
#210000000
0"
0i
0k
0o
0v
0""
0*"
02"
0>"
#215000000
1"
b10010 =
1A
0b
1i
1k
1o
1v
1x
1{
1""
1*"
12"
0="
1>"
#220000000
0"
0i
0k
0o
0v
0""
0*"
02"
0>"
#225000000
1"
b11111111111111111111111111111111 =
1i
1k
1o
1v
1z
0{
1""
1*"
12"
1>"
#230000000
0"
0i
0k
0o
0v
0""
0*"
02"
0>"
#235000000
1"
1i
1k
1o
1v
1""
1*"
12"
1>"
#240000000
0"
0i
0k
0o
0v
0""
0*"
02"
0>"
#245000000
1"
1i
1k
1o
1v
1""
1*"
12"
1>"
#250000000
0"
1&
b0110 7
0A
1b
0i
0k
0o
0v
0x
1y
1|
0""
0*"
02"
1="
0>"
b0110 A"
#255000000
1"
0&
b0000 7
b111111111111111111111111111111111111111111111010 ;
b0 =
1i
1k
1o
1v
0y
0z
0|
1""
1*"
12"
1>"
b0000 A"
b111111111111111111111111111111111111111111111010 B"
b000000000000000110 J"
b111111111111111111111111111111111111111111111010 L"
b111111111111111111111111111111111010 M"
b111111111111111111111111111111111111111111111010 N"
b111111111111111111111111111111111111111111111010 Q"
b111111111111111111111111111111111111111111111010 R"
b111111111111111111111111111111111111111111111010 W"
b111111111111111111111111111111111111111111111010 X"
b111111111111111111111111111111111111111111111010 ]"
b111111111111111111111111111111111111111111111010 ^"
b111111111111111111111111111111111111111111111010 c"
b111111111111111111111111111111111111111111111010 d"
b111111111111111111111111111111111111111111111010 i"
b111111111111111111111111111111111111111111111010 j"
b111111111111111111111111111111111111111111111010 o"
b111111111111111111111111111111111111111111111010 p"
b111111111111111111111111111111111111111111111010 u"
b111111111111111111111111111111111111111111111010 v"
b111111111111111111111111111111111111111111111010 {"
b111111111111111111111111111111111111111111111010 |"
b111111111111111111111111111111111111111111111010 $#
b111111111111111111111111111111111111111111111010 %#
b111111111111111111111111111111111111111111111010 *#
b111111111111111111111111111111111111111111111010 +#
b111111111111111111111111111111111111111111111010 0#
b111111111111111111111111111111111111111111111010 1#
#260000000
0"
0i
0k
0o
0v
0""
0*"
02"
0>"
#265000000
1"
b111111111111111111111111111111111111111111111010 ;
b111111111111111111111111111111111111111111111010 <
b1 =
1i
1k
1o
1v
1""
1*"
12"
1>"
b111111111111111111111111111111111111111111111010 B"
b000000000000000000 J"
b000000000000000000000000000000000000000000000000 L"
b000000000000000000000000000000000000 M"
b000000000000000000000000000000000000000000000000 N"
b000000000000000110 P"
b000000000000000000000000000000000000000000000000 Q"
b111111111111111111111111111111111111111111111010 R"
b111111111111111111111111111111111010 S"
b111111111111111111111111111111111111111111111010 T"
b111111111111111111111111111111111111111111111010 W"
b111111111111111111111111111111111111111111111010 X"
b111111111111111111111111111111111111111111111010 ]"
b111111111111111111111111111111111111111111111010 ^"
b111111111111111111111111111111111111111111111010 c"
b111111111111111111111111111111111111111111111010 d"
b111111111111111111111111111111111111111111111010 i"
b111111111111111111111111111111111111111111111010 j"
b111111111111111111111111111111111111111111111010 o"
b111111111111111111111111111111111111111111111010 p"
b111111111111111111111111111111111111111111111010 u"
b111111111111111111111111111111111111111111111010 v"
b111111111111111111111111111111111111111111111010 {"
b111111111111111111111111111111111111111111111010 |"
b111111111111111111111111111111111111111111111010 $#
b111111111111111111111111111111111111111111111010 %#
b111111111111111111111111111111111111111111111010 *#
b111111111111111111111111111111111111111111111010 +#
b111111111111111111111111111111111111111111111010 0#
b111111111111111111111111111111111111111111111010 1#
#270000000
0"
0i
0k
0o
0v
0""
0*"
02"
0>"
#275000000
1"
b111111111111111111111111111111111111111111111010 ;
b10 =
1i
1k
1o
1v
1""
1*"
12"
1>"
b111111111111111111111111111111111111111111111010 B"
b000000000000000000 P"
b000000000000000000000000000000000000000000000000 R"
b000000000000000000000000000000000000 S"
b000000000000000000000000000000000000000000000000 T"
b000000000000000110 V"
b000000000000000000000000000000000000000000000000 W"
b111111111111111111111111111111111111111111111010 X"
b111111111111111111111111111111111010 Y"
b111111111111111111111111111111111111111111111010 Z"
b111111111111111111111111111111111111111111111010 ]"
b111111111111111111111111111111111111111111111010 ^"
b111111111111111111111111111111111111111111111010 c"
b111111111111111111111111111111111111111111111010 d"
b111111111111111111111111111111111111111111111010 i"
b111111111111111111111111111111111111111111111010 j"
b111111111111111111111111111111111111111111111010 o"
b111111111111111111111111111111111111111111111010 p"
b111111111111111111111111111111111111111111111010 u"
b111111111111111111111111111111111111111111111010 v"
b111111111111111111111111111111111111111111111010 {"
b111111111111111111111111111111111111111111111010 |"
b111111111111111111111111111111111111111111111010 $#
b111111111111111111111111111111111111111111111010 %#
b111111111111111111111111111111111111111111111010 *#
b111111111111111111111111111111111111111111111010 +#
b111111111111111111111111111111111111111111111010 0#
b111111111111111111111111111111111111111111111010 1#
#280000000
0"
0i
0k
0o
0v
0""
0*"
02"
0>"
#285000000
1"
b111111111111111111111111111111111111111111111010 ;
b11 =
1i
1k
1o
1v
1""
1*"
12"
1>"
b111111111111111111111111111111111111111111111010 B"
b000000000000000000 V"
b000000000000000000000000000000000000000000000000 X"
b000000000000000000000000000000000000 Y"
b000000000000000000000000000000000000000000000000 Z"
b000000000000000110 \"
b000000000000000000000000000000000000000000000000 ]"
b111111111111111111111111111111111111111111111010 ^"
b111111111111111111111111111111111010 _"
b111111111111111111111111111111111111111111111010 `"
b111111111111111111111111111111111111111111111010 c"
b111111111111111111111111111111111111111111111010 d"
b111111111111111111111111111111111111111111111010 i"
b111111111111111111111111111111111111111111111010 j"
b111111111111111111111111111111111111111111111010 o"
b111111111111111111111111111111111111111111111010 p"
b111111111111111111111111111111111111111111111010 u"
b111111111111111111111111111111111111111111111010 v"
b111111111111111111111111111111111111111111111010 {"
b111111111111111111111111111111111111111111111010 |"
b111111111111111111111111111111111111111111111010 $#
b111111111111111111111111111111111111111111111010 %#
b111111111111111111111111111111111111111111111010 *#
b111111111111111111111111111111111111111111111010 +#
b111111111111111111111111111111111111111111111010 0#
b111111111111111111111111111111111111111111111010 1#
#290000000
0"
0i
0k
0o
0v
0""
0*"
02"
0>"
#295000000
1"
b111111111111111111111111111111111111111111111010 ;
b100 =
1i
1k
1o
1v
1""
1*"
12"
1>"
b111111111111111111111111111111111111111111111010 B"
b000000000000000000 \"
b000000000000000000000000000000000000000000000000 ^"
b000000000000000000000000000000000000 _"
b000000000000000000000000000000000000000000000000 `"
b000000000000000110 b"
b000000000000000000000000000000000000000000000000 c"
b111111111111111111111111111111111111111111111010 d"
b111111111111111111111111111111111010 e"
b111111111111111111111111111111111111111111111010 f"
b111111111111111111111111111111111111111111111010 i"
b111111111111111111111111111111111111111111111010 j"
b111111111111111111111111111111111111111111111010 o"
b111111111111111111111111111111111111111111111010 p"
b111111111111111111111111111111111111111111111010 u"
b111111111111111111111111111111111111111111111010 v"
b111111111111111111111111111111111111111111111010 {"
b111111111111111111111111111111111111111111111010 |"
b111111111111111111111111111111111111111111111010 $#
b111111111111111111111111111111111111111111111010 %#
b111111111111111111111111111111111111111111111010 *#
b111111111111111111111111111111111111111111111010 +#
b111111111111111111111111111111111111111111111010 0#
b111111111111111111111111111111111111111111111010 1#
#300000000
0"
0i
0k
0o
0v
0""
0*"
02"
0>"
#305000000
1"
b111111111111111111111111111111111111111111111010 ;
b101 =
1i
1k
1o
1v
1""
1*"
12"
1>"
b111111111111111111111111111111111111111111111010 B"
b000000000000000000 b"
b000000000000000000000000000000000000000000000000 d"
b000000000000000000000000000000000000 e"
b000000000000000000000000000000000000000000000000 f"
b000000000000000110 h"
b000000000000000000000000000000000000000000000000 i"
b111111111111111111111111111111111111111111111010 j"
b111111111111111111111111111111111010 k"
b111111111111111111111111111111111111111111111010 l"
b111111111111111111111111111111111111111111111010 o"
b111111111111111111111111111111111111111111111010 p"
b111111111111111111111111111111111111111111111010 u"
b111111111111111111111111111111111111111111111010 v"
b111111111111111111111111111111111111111111111010 {"
b111111111111111111111111111111111111111111111010 |"
b111111111111111111111111111111111111111111111010 $#
b111111111111111111111111111111111111111111111010 %#
b111111111111111111111111111111111111111111111010 *#
b111111111111111111111111111111111111111111111010 +#
b111111111111111111111111111111111111111111111010 0#
b111111111111111111111111111111111111111111111010 1#
#310000000
0"
0i
0k
0o
0v
0""
0*"
02"
0>"
#315000000
1"
b111111111111111111111111111111111111111111111010 ;
b110 =
1i
1k
1o
1v
1""
1*"
12"
1>"
b111111111111111111111111111111111111111111111010 B"
b000000000000000000 h"
b000000000000000000000000000000000000000000000000 j"
b000000000000000000000000000000000000 k"
b000000000000000000000000000000000000000000000000 l"
b000000000000000110 n"
b000000000000000000000000000000000000000000000000 o"
b111111111111111111111111111111111111111111111010 p"
b111111111111111111111111111111111010 q"
b111111111111111111111111111111111111111111111010 r"
b111111111111111111111111111111111111111111111010 u"
b111111111111111111111111111111111111111111111010 v"
b111111111111111111111111111111111111111111111010 {"
b111111111111111111111111111111111111111111111010 |"
b111111111111111111111111111111111111111111111010 $#
b111111111111111111111111111111111111111111111010 %#
b111111111111111111111111111111111111111111111010 *#
b111111111111111111111111111111111111111111111010 +#
b111111111111111111111111111111111111111111111010 0#
b111111111111111111111111111111111111111111111010 1#
#320000000
0"
0i
0k
0o
0v
0""
0*"
02"
0>"
#325000000
1"
b111111111111111111111111111111111111111111111010 ;
b111 =
1i
1k
1o
1v
1""
1*"
12"
1>"
b111111111111111111111111111111111111111111111010 B"
b000000000000000000 n"
b000000000000000000000000000000000000000000000000 p"
b000000000000000000000000000000000000 q"
b000000000000000000000000000000000000000000000000 r"
b000000000000000110 t"
b000000000000000000000000000000000000000000000000 u"
b111111111111111111111111111111111111111111111010 v"
b111111111111111111111111111111111010 w"
b111111111111111111111111111111111111111111111010 x"
b111111111111111111111111111111111111111111111010 {"
b111111111111111111111111111111111111111111111010 |"
b111111111111111111111111111111111111111111111010 $#
b111111111111111111111111111111111111111111111010 %#
b111111111111111111111111111111111111111111111010 *#
b111111111111111111111111111111111111111111111010 +#
b111111111111111111111111111111111111111111111010 0#
b111111111111111111111111111111111111111111111010 1#
#330000000
0"
0i
0k
0o
0v
0""
0*"
02"
0>"
#335000000
1"
b111111111111111111111111111111111111111111111010 ;
b1000 =
1i
1k
1o
1v
1""
1*"
12"
1>"
b111111111111111111111111111111111111111111111010 B"
b000000000000000000 t"
b000000000000000000000000000000000000000000000000 v"
b000000000000000000000000000000000000 w"
b000000000000000000000000000000000000000000000000 x"
b000000000000000110 z"
b000000000000000000000000000000000000000000000000 {"
b111111111111111111111111111111111111111111111010 |"
b111111111111111111111111111111111010 }"
b111111111111111111111111111111111111111111111010 !#
b111111111111111111111111111111111111111111111010 $#
b111111111111111111111111111111111111111111111010 %#
b111111111111111111111111111111111111111111111010 *#
b111111111111111111111111111111111111111111111010 +#
b111111111111111111111111111111111111111111111010 0#
b111111111111111111111111111111111111111111111010 1#
#340000000
0"
0i
0k
0o
0v
0""
0*"
02"
0>"
#345000000
1"
b111111111111111111111111111111111111111111111010 ;
b1001 =
1i
1k
1o
1v
1""
1*"
12"
1>"
b111111111111111111111111111111111111111111111010 B"
b000000000000000000 z"
b000000000000000000000000000000000000000000000000 |"
b000000000000000000000000000000000000 }"
b000000000000000000000000000000000000000000000000 !#
b000000000000000110 ##
b000000000000000000000000000000000000000000000000 $#
b111111111111111111111111111111111111111111111010 %#
b111111111111111111111111111111111010 &#
b111111111111111111111111111111111111111111111010 '#
b111111111111111111111111111111111111111111111010 *#
b111111111111111111111111111111111111111111111010 +#
b111111111111111111111111111111111111111111111010 0#
b111111111111111111111111111111111111111111111010 1#
#350000000
0"
0i
0k
0o
0v
0""
0*"
02"
0>"
