ultrasound/libero/simulation/tb_top.vcd
$date
	Thu Sep  4 22:27:29 2025
$end
$version
	ModelSim Version 2024.2
$end
$timescale
	1ps
$end

$scope module tb_top $end
$var reg 1 ! clk $end
$var reg 1 " reset $end
$var wire 1 # comp_frac [16] $end
$var wire 1 $ comp_frac [15] $end
$var wire 1 % comp_frac [14] $end
$var wire 1 & comp_frac [13] $end
$var wire 1 ' comp_frac [12] $end
$var wire 1 ( comp_frac [11] $end
$var wire 1 ) comp_frac [10] $end
$var wire 1 * comp_frac [9] $end
$var wire 1 + comp_frac [8] $end
$var wire 1 , comp_frac [7] $end
$var wire 1 - comp_frac [6] $end
$var wire 1 . comp_frac [5] $end
$var wire 1 / comp_frac [4] $end
$var wire 1 0 comp_frac [3] $end
$var wire 1 1 comp_frac [2] $end
$var wire 1 2 comp_frac [1] $end
$var wire 1 3 comp_frac [0] $end
$var wire 1 4 comp_int [5] $end
$var wire 1 5 comp_int [4] $end
$var wire 1 6 comp_int [3] $end
$var wire 1 7 comp_int [2] $end
$var wire 1 8 comp_int [1] $end
$var wire 1 9 comp_int [0] $end
$var wire 1 : fifo_count [5] $end
$var wire 1 ; fifo_count [4] $end
$var wire 1 < fifo_count [3] $end
$var wire 1 = fifo_count [2] $end
$var wire 1 > fifo_count [1] $end
$var wire 1 ? fifo_count [0] $end

$scope module dut $end
$var wire 1 @ clk $end
$var wire 1 A reset $end
$var wire 1 # comp_frac [16] $end
$var wire 1 $ comp_frac [15] $end
$var wire 1 % comp_frac [14] $end
$var wire 1 & comp_frac [13] $end
$var wire 1 ' comp_frac [12] $end
$var wire 1 ( comp_frac [11] $end
$var wire 1 ) comp_frac [10] $end
$var wire 1 * comp_frac [9] $end
$var wire 1 + comp_frac [8] $end
$var wire 1 , comp_frac [7] $end
$var wire 1 - comp_frac [6] $end
$var wire 1 . comp_frac [5] $end
$var wire 1 / comp_frac [4] $end
$var wire 1 0 comp_frac [3] $end
$var wire 1 1 comp_frac [2] $end
$var wire 1 2 comp_frac [1] $end
$var wire 1 3 comp_frac [0] $end
$var wire 1 4 comp_int [5] $end
$var wire 1 5 comp_int [4] $end
$var wire 1 6 comp_int [3] $end
$var wire 1 7 comp_int [2] $end
$var wire 1 8 comp_int [1] $end
$var wire 1 9 comp_int [0] $end
$var wire 1 : fifo_count [5] $end
$var wire 1 ; fifo_count [4] $end
$var wire 1 < fifo_count [3] $end
$var wire 1 = fifo_count [2] $end
$var wire 1 > fifo_count [1] $end
$var wire 1 ? fifo_count [0] $end
$var wire 1 B comp_frac_net_0 [16] $end
$var wire 1 C comp_frac_net_0 [15] $end
$var wire 1 D comp_frac_net_0 [14] $end
$var wire 1 E comp_frac_net_0 [13] $end
$var wire 1 F comp_frac_net_0 [12] $end
$var wire 1 G comp_frac_net_0 [11] $end
$var wire 1 H comp_frac_net_0 [10] $end
$var wire 1 I comp_frac_net_0 [9] $end
$var wire 1 J comp_frac_net_0 [8] $end
$var wire 1 K comp_frac_net_0 [7] $end
$var wire 1 L comp_frac_net_0 [6] $end
$var wire 1 M comp_frac_net_0 [5] $end
$var wire 1 N comp_frac_net_0 [4] $end
$var wire 1 O comp_frac_net_0 [3] $end
$var wire 1 P comp_frac_net_0 [2] $end
$var wire 1 Q comp_frac_net_0 [1] $end
$var wire 1 R comp_frac_net_0 [0] $end
$var wire 1 S comp_int_net_0 [5] $end
$var wire 1 T comp_int_net_0 [4] $end
$var wire 1 U comp_int_net_0 [3] $end
$var wire 1 V comp_int_net_0 [2] $end
$var wire 1 W comp_int_net_0 [1] $end
$var wire 1 X comp_int_net_0 [0] $end
$var wire 1 Y envelope_0_DOUT_VALID $end
$var wire 1 Z envelope_0_DOUT_X [47] $end
$var wire 1 [ envelope_0_DOUT_X [46] $end
$var wire 1 \ envelope_0_DOUT_X [45] $end
$var wire 1 ] envelope_0_DOUT_X [44] $end
$var wire 1 ^ envelope_0_DOUT_X [43] $end
$var wire 1 _ envelope_0_DOUT_X [42] $end
$var wire 1 ` envelope_0_DOUT_X [41] $end
$var wire 1 a envelope_0_DOUT_X [40] $end
$var wire 1 b envelope_0_DOUT_X [39] $end
$var wire 1 c envelope_0_DOUT_X [38] $end
$var wire 1 d envelope_0_DOUT_X [37] $end
$var wire 1 e envelope_0_DOUT_X [36] $end
$var wire 1 f envelope_0_DOUT_X [35] $end
$var wire 1 g envelope_0_DOUT_X [34] $end
$var wire 1 h envelope_0_DOUT_X [33] $end
$var wire 1 i envelope_0_DOUT_X [32] $end
$var wire 1 j envelope_0_DOUT_X [31] $end
$var wire 1 k envelope_0_DOUT_X [30] $end
$var wire 1 l envelope_0_DOUT_X [29] $end
$var wire 1 m envelope_0_DOUT_X [28] $end
$var wire 1 n envelope_0_DOUT_X [27] $end
$var wire 1 o envelope_0_DOUT_X [26] $end
$var wire 1 p envelope_0_DOUT_X [25] $end
$var wire 1 q envelope_0_DOUT_X [24] $end
$var wire 1 r envelope_0_DOUT_X [23] $end
$var wire 1 s envelope_0_DOUT_X [22] $end
$var wire 1 t envelope_0_DOUT_X [21] $end
$var wire 1 u envelope_0_DOUT_X [20] $end
$var wire 1 v envelope_0_DOUT_X [19] $end
$var wire 1 w envelope_0_DOUT_X [18] $end
$var wire 1 x envelope_0_DOUT_X [17] $end
$var wire 1 y envelope_0_DOUT_X [16] $end
$var wire 1 z envelope_0_DOUT_X [15] $end
$var wire 1 { envelope_0_DOUT_X [14] $end
$var wire 1 | envelope_0_DOUT_X [13] $end
$var wire 1 } envelope_0_DOUT_X [12] $end
$var wire 1 ~ envelope_0_DOUT_X [11] $end
$var wire 1 !! envelope_0_DOUT_X [10] $end
$var wire 1 "! envelope_0_DOUT_X [9] $end
$var wire 1 #! envelope_0_DOUT_X [8] $end
$var wire 1 $! envelope_0_DOUT_X [7] $end
$var wire 1 %! envelope_0_DOUT_X [6] $end
$var wire 1 &! envelope_0_DOUT_X [5] $end
$var wire 1 '! envelope_0_DOUT_X [4] $end
$var wire 1 (! envelope_0_DOUT_X [3] $end
$var wire 1 )! envelope_0_DOUT_X [2] $end
$var wire 1 *! envelope_0_DOUT_X [1] $end
$var wire 1 +! envelope_0_DOUT_X [0] $end
$var wire 1 ,! fifo_0_data_out [47] $end
$var wire 1 -! fifo_0_data_out [46] $end
$var wire 1 .! fifo_0_data_out [45] $end
$var wire 1 /! fifo_0_data_out [44] $end
$var wire 1 0! fifo_0_data_out [43] $end
$var wire 1 1! fifo_0_data_out [42] $end
$var wire 1 2! fifo_0_data_out [41] $end
$var wire 1 3! fifo_0_data_out [40] $end
$var wire 1 4! fifo_0_data_out [39] $end
$var wire 1 5! fifo_0_data_out [38] $end
$var wire 1 6! fifo_0_data_out [37] $end
$var wire 1 7! fifo_0_data_out [36] $end
$var wire 1 8! fifo_0_data_out [35] $end
$var wire 1 9! fifo_0_data_out [34] $end
$var wire 1 :! fifo_0_data_out [33] $end
$var wire 1 ;! fifo_0_data_out [32] $end
$var wire 1 <! fifo_0_data_out [31] $end
$var wire 1 =! fifo_0_data_out [30] $end
$var wire 1 >! fifo_0_data_out [29] $end
$var wire 1 ?! fifo_0_data_out [28] $end
$var wire 1 @! fifo_0_data_out [27] $end
$var wire 1 A! fifo_0_data_out [26] $end
$var wire 1 B! fifo_0_data_out [25] $end
$var wire 1 C! fifo_0_data_out [24] $end
$var wire 1 D! fifo_0_data_out [23] $end
$var wire 1 E! fifo_0_data_out [22] $end
$var wire 1 F! fifo_0_data_out [21] $end
$var wire 1 G! fifo_0_data_out [20] $end
$var wire 1 H! fifo_0_data_out [19] $end
$var wire 1 I! fifo_0_data_out [18] $end
$var wire 1 J! fifo_0_data_out [17] $end
$var wire 1 K! fifo_0_data_out [16] $end
$var wire 1 L! fifo_0_data_out [15] $end
$var wire 1 M! fifo_0_data_out [14] $end
$var wire 1 N! fifo_0_data_out [13] $end
$var wire 1 O! fifo_0_data_out [12] $end
$var wire 1 P! fifo_0_data_out [11] $end
$var wire 1 Q! fifo_0_data_out [10] $end
$var wire 1 R! fifo_0_data_out [9] $end
$var wire 1 S! fifo_0_data_out [8] $end
$var wire 1 T! fifo_0_data_out [7] $end
$var wire 1 U! fifo_0_data_out [6] $end
$var wire 1 V! fifo_0_data_out [5] $end
$var wire 1 W! fifo_0_data_out [4] $end
$var wire 1 X! fifo_0_data_out [3] $end
$var wire 1 Y! fifo_0_data_out [2] $end
$var wire 1 Z! fifo_0_data_out [1] $end
$var wire 1 [! fifo_0_data_out [0] $end
$var wire 1 \! fifo_0_out_valid $end
$var wire 1 ]! fifo_count_net_0 [5] $end
$var wire 1 ^! fifo_count_net_0 [4] $end
$var wire 1 _! fifo_count_net_0 [3] $end
$var wire 1 `! fifo_count_net_0 [2] $end
$var wire 1 a! fifo_count_net_0 [1] $end
$var wire 1 b! fifo_count_net_0 [0] $end
$var wire 1 c! start_pulse_generator_0_start_pulse $end
$var wire 1 d! top_bf_0_beamformed_output [17] $end
$var wire 1 e! top_bf_0_beamformed_output [16] $end
$var wire 1 f! top_bf_0_beamformed_output [15] $end
$var wire 1 g! top_bf_0_beamformed_output [14] $end
$var wire 1 h! top_bf_0_beamformed_output [13] $end
$var wire 1 i! top_bf_0_beamformed_output [12] $end
$var wire 1 j! top_bf_0_beamformed_output [11] $end
$var wire 1 k! top_bf_0_beamformed_output [10] $end
$var wire 1 l! top_bf_0_beamformed_output [9] $end
$var wire 1 m! top_bf_0_beamformed_output [8] $end
$var wire 1 n! top_bf_0_beamformed_output [7] $end
$var wire 1 o! top_bf_0_beamformed_output [6] $end
$var wire 1 p! top_bf_0_beamformed_output [5] $end
$var wire 1 q! top_bf_0_beamformed_output [4] $end
$var wire 1 r! top_bf_0_beamformed_output [3] $end
$var wire 1 s! top_bf_0_beamformed_output [2] $end
$var wire 1 t! top_bf_0_beamformed_output [1] $end
$var wire 1 u! top_bf_0_beamformed_output [0] $end
$var wire 1 v! top_logc_0_log_in_ready $end
$var wire 1 w! comp_frac_net_1 [16] $end
$var wire 1 x! comp_frac_net_1 [15] $end
$var wire 1 y! comp_frac_net_1 [14] $end
$var wire 1 z! comp_frac_net_1 [13] $end
$var wire 1 {! comp_frac_net_1 [12] $end
$var wire 1 |! comp_frac_net_1 [11] $end
$var wire 1 }! comp_frac_net_1 [10] $end
$var wire 1 ~! comp_frac_net_1 [9] $end
$var wire 1 !" comp_frac_net_1 [8] $end
$var wire 1 "" comp_frac_net_1 [7] $end
$var wire 1 #" comp_frac_net_1 [6] $end
$var wire 1 $" comp_frac_net_1 [5] $end
$var wire 1 %" comp_frac_net_1 [4] $end
$var wire 1 &" comp_frac_net_1 [3] $end
$var wire 1 '" comp_frac_net_1 [2] $end
$var wire 1 (" comp_frac_net_1 [1] $end
$var wire 1 )" comp_frac_net_1 [0] $end
$var wire 1 *" comp_int_net_1 [5] $end
$var wire 1 +" comp_int_net_1 [4] $end
$var wire 1 ," comp_int_net_1 [3] $end
$var wire 1 -" comp_int_net_1 [2] $end
$var wire 1 ." comp_int_net_1 [1] $end
$var wire 1 /" comp_int_net_1 [0] $end
$var wire 1 0" fifo_count_net_1 [5] $end
$var wire 1 1" fifo_count_net_1 [4] $end
$var wire 1 2" fifo_count_net_1 [3] $end
$var wire 1 3" fifo_count_net_1 [2] $end
$var wire 1 4" fifo_count_net_1 [1] $end
$var wire 1 5" fifo_count_net_1 [0] $end

$scope module envelope_0 $end
$var wire 1 @ CLK $end
$var wire 1 A reset $end
$var wire 1 d! DATAI [17] $end
$var wire 1 e! DATAI [16] $end
$var wire 1 f! DATAI [15] $end
$var wire 1 g! DATAI [14] $end
$var wire 1 h! DATAI [13] $end
$var wire 1 i! DATAI [12] $end
$var wire 1 j! DATAI [11] $end
$var wire 1 k! DATAI [10] $end
$var wire 1 l! DATAI [9] $end
$var wire 1 m! DATAI [8] $end
$var wire 1 n! DATAI [7] $end
$var wire 1 o! DATAI [6] $end
$var wire 1 p! DATAI [5] $end
$var wire 1 q! DATAI [4] $end
$var wire 1 r! DATAI [3] $end
$var wire 1 s! DATAI [2] $end
$var wire 1 t! DATAI [1] $end
$var wire 1 u! DATAI [0] $end
$var reg 1 6" DOUT_VALID $end
$var reg 48 7" DOUT_X [47:0] $end
$upscope $end

$scope module fifo_0 $end
$var parameter 32 8" ADDR_WIDTH $end
$var parameter 32 9" DATA_WIDTH $end
$var parameter 32 :" DEPTH $end
$var wire 1 @ clk $end
$var wire 1 A reset $end
$var wire 1 Z data_in [47] $end
$var wire 1 [ data_in [46] $end
$var wire 1 \ data_in [45] $end
$var wire 1 ] data_in [44] $end
$var wire 1 ^ data_in [43] $end
$var wire 1 _ data_in [42] $end
$var wire 1 ` data_in [41] $end
$var wire 1 a data_in [40] $end
$var wire 1 b data_in [39] $end
$var wire 1 c data_in [38] $end
$var wire 1 d data_in [37] $end
$var wire 1 e data_in [36] $end
$var wire 1 f data_in [35] $end
$var wire 1 g data_in [34] $end
$var wire 1 h data_in [33] $end
$var wire 1 i data_in [32] $end
$var wire 1 j data_in [31] $end
$var wire 1 k data_in [30] $end
$var wire 1 l data_in [29] $end
$var wire 1 m data_in [28] $end
$var wire 1 n data_in [27] $end
$var wire 1 o data_in [26] $end
$var wire 1 p data_in [25] $end
$var wire 1 q data_in [24] $end
$var wire 1 r data_in [23] $end
$var wire 1 s data_in [22] $end
$var wire 1 t data_in [21] $end
$var wire 1 u data_in [20] $end
$var wire 1 v data_in [19] $end
$var wire 1 w data_in [18] $end
$var wire 1 x data_in [17] $end
$var wire 1 y data_in [16] $end
$var wire 1 z data_in [15] $end
$var wire 1 { data_in [14] $end
$var wire 1 | data_in [13] $end
$var wire 1 } data_in [12] $end
$var wire 1 ~ data_in [11] $end
$var wire 1 !! data_in [10] $end
$var wire 1 "! data_in [9] $end
$var wire 1 #! data_in [8] $end
$var wire 1 $! data_in [7] $end
$var wire 1 %! data_in [6] $end
$var wire 1 &! data_in [5] $end
$var wire 1 '! data_in [4] $end
$var wire 1 (! data_in [3] $end
$var wire 1 )! data_in [2] $end
$var wire 1 *! data_in [1] $end
$var wire 1 +! data_in [0] $end
$var wire 1 Y wr_en $end
$var wire 1 v! rd_en $end
$var reg 48 ;" data_out [47:0] $end
$var reg 6 <" fifo_count [5:0] $end
$var reg 1 =" out_valid $end
$upscope $end

$scope module start_pulse_generator_0 $end
$var wire 1 @ clk $end
$var wire 1 A reset $end
$var reg 1 >" start_pulse $end
$var reg 8 ?" counter [7:0] $end
$upscope $end

$scope module top_bf_0 $end
$var wire 1 @ clk $end
$var wire 1 A reset $end
$var wire 1 c! start $end
$var reg 18 @" beamformed_output [17:0] $end
$upscope $end

$scope module top_logc_0 $end
$var wire 1 @ clk $end
$var wire 1 A reset $end
$var wire 1 \! fifo_out_valid $end
$var wire 1 ,! data_in [47] $end
$var wire 1 -! data_in [46] $end
$var wire 1 .! data_in [45] $end
$var wire 1 /! data_in [44] $end
$var wire 1 0! data_in [43] $end
$var wire 1 1! data_in [42] $end
$var wire 1 2! data_in [41] $end
$var wire 1 3! data_in [40] $end
$var wire 1 4! data_in [39] $end
$var wire 1 5! data_in [38] $end
$var wire 1 6! data_in [37] $end
$var wire 1 7! data_in [36] $end
$var wire 1 8! data_in [35] $end
$var wire 1 9! data_in [34] $end
$var wire 1 :! data_in [33] $end
$var wire 1 ;! data_in [32] $end
$var wire 1 <! data_in [31] $end
$var wire 1 =! data_in [30] $end
$var wire 1 >! data_in [29] $end
$var wire 1 ?! data_in [28] $end
$var wire 1 @! data_in [27] $end
$var wire 1 A! data_in [26] $end
$var wire 1 B! data_in [25] $end
$var wire 1 C! data_in [24] $end
$var wire 1 D! data_in [23] $end
$var wire 1 E! data_in [22] $end
$var wire 1 F! data_in [21] $end
$var wire 1 G! data_in [20] $end
$var wire 1 H! data_in [19] $end
$var wire 1 I! data_in [18] $end
$var wire 1 J! data_in [17] $end
$var wire 1 K! data_in [16] $end
$var wire 1 L! data_in [15] $end
$var wire 1 M! data_in [14] $end
$var wire 1 N! data_in [13] $end
$var wire 1 O! data_in [12] $end
$var wire 1 P! data_in [11] $end
$var wire 1 Q! data_in [10] $end
$var wire 1 R! data_in [9] $end
$var wire 1 S! data_in [8] $end
$var wire 1 T! data_in [7] $end
$var wire 1 U! data_in [6] $end
$var wire 1 V! data_in [5] $end
$var wire 1 W! data_in [4] $end
$var wire 1 X! data_in [3] $end
$var wire 1 Y! data_in [2] $end
$var wire 1 Z! data_in [1] $end
$var wire 1 [! data_in [0] $end
$var reg 1 A" log_in_ready $end
$var reg 6 B" comp_int [5:0] $end
$var reg 17 C" comp_frac [16:0] $end
$upscope $end
$upscope $end
$upscope $end
$enddefinitions $end
#0
$dumpvars
0!
1"
06"
b0 7"
b0 ;"
b0 <"
0="
0>"
b0 ?"
b0 @"
0A"
b0 B"
b0 C"
b101 8"
b110000 9"
b11110 :"
03
02
01
00
0/
0.
0-
0,
0+
0*
0)
0(
0'
0&
0%
0$
0#
09
08
07
06
05
04
0?
0>
0=
0<
0;
0:
0R
0Q
0P
0O
0N
0M
0L
0K
0J
0I
0H
0G
0F
0E
0D
0C
0B
0X
0W
0V
0U
0T
0S
0Y
0+!
0*!
0)!
0(!
0'!
0&!
0%!
0$!
0#!
0"!
0!!
0~
0}
0|
0{
0z
0y
0x
0w
0v
0u
0t
0s
0r
0q
0p
0o
0n
0m
0l
0k
0j
0i
0h
0g
0f
0e
0d
0c
0b
0a
0`
0_
0^
0]
0\
0[
0Z
0[!
0Z!
0Y!
0X!
0W!
0V!
0U!
0T!
0S!
0R!
0Q!
0P!
0O!
0N!
0M!
0L!
0K!
0J!
0I!
0H!
0G!
0F!
0E!
0D!
0C!
0B!
0A!
0@!
0?!
0>!
0=!
0<!
0;!
0:!
09!
08!
07!
06!
05!
04!
03!
02!
01!
00!
0/!
0.!
0-!
0,!
0\!
0b!
0a!
0`!
0_!
0^!
0]!
0c!
0u!
0t!
0s!
0r!
0q!
0p!
0o!
0n!
0m!
0l!
0k!
0j!
0i!
0h!
0g!
0f!
0e!
0d!
0v!
0)"
0("
0'"
0&"
0%"
0$"
0#"
0""
0!"
0~!
0}!
0|!
0{!
0z!
0y!
0x!
0w!
0/"
0."
0-"
0,"
0+"
0*"
05"
04"
03"
02"
01"
00"
0@
1A
$end
#5000
1!
1@
#10000
0!
0@
#15000
1!
1@
#20000
0!
0@
#25000
1!
1@
#30000
0!
0@
#35000
1!
1@
#40000
0!
0@
#45000
1!
1@
#50000
0"
0!
0A
0@
#55000
1!
1@
16"
b1 7"
b1 ?"
b1 B"
b10 C"
1Y
1Q
1X
1+!
1/"
1("
12
19
#60000
0!
0@
#65000
1!
1@
06"
b10 7"
b1 <"
b1 ;"
1="
b10 ?"
b10 B"
b100 C"
0Y
1\!
0Q
1P
0X
1W
1[!
1b!
0+!
1*!
15"
0/"
1."
0("
1'"
02
11
09
18
1?
#70000
0!
0@
#75000
1!
1@
16"
b11 7"
b10 ;"
0="
b11 ?"
1A"
b11 B"
b110 C"
1Y
0\!
1v!
1Q
1X
0[!
1Z!
1+!
1/"
1("
12
19
#80000
0!
0@
#85000
1!
1@
06"
b100 7"
b10 <"
b0 <"
b11 ;"
1="
b100 ?"
0A"
b100 B"
b1000 C"
0Y
1\!
0v!
0Q
0P
1O
0X
0W
1V
1[!
0b!
0+!
0*!
1)!
05"
0/"
0."
1-"
0("
0'"
1&"
02
01
10
09
08
17
0?
#90000
0!
0@
#95000
1!
1@
16"
b101 7"
b100 ;"
0="
b101 ?"
1A"
b101 B"
b1010 C"
1Y
0\!
1v!
1Q
1X
0[!
0Z!
1Y!
1+!
1/"
1("
12
19
#100000
0!
0@
#105000
1!
1@
06"
b110 7"
b1 <"
b101 ;"
1="
b110 ?"
0A"
b110 B"
b1100 C"
0Y
1\!
0v!
0Q
1P
0X
1W
1[!
1b!
0+!
1*!
15"
0/"
1."
0("
1'"
02
11
09
18
1?
#110000
0!
0@
#115000
1!
1@
16"
b111 7"
b110 ;"
0="
b111 ?"
1A"
b111 B"
b1110 C"
1Y
0\!
1v!
1Q
1X
0[!
1Z!
1+!
1/"
1("
12
19
#120000
0!
0@
#125000
1!
1@
06"
b1000 7"
b10 <"
b0 <"
b111 ;"
1="
b1000 ?"
0A"
b1000 B"
b10000 C"
0Y
1\!
0v!
0Q
0P
0O
1N
0X
0W
0V
1U
1[!
0b!
0+!
0*!
0)!
1(!
05"
0/"
0."
0-"
1,"
0("
0'"
0&"
1%"
02
01
00
1/
09
08
07
16
0?
#130000
0!
0@
#135000
1!
1@
16"
b1001 7"
b1000 ;"
0="
b1001 ?"
1A"
b1001 B"
b10010 C"
1Y
0\!
1v!
1Q
1X
0[!
0Z!
0Y!
1X!
1+!
1/"
1("
12
19
#140000
0!
0@
#145000
1!
1@
06"
b1010 7"
b1 <"
b1001 ;"
1="
b1010 ?"
0A"
b1010 B"
b10100 C"
0Y
1\!
0v!
0Q
1P
0X
1W
1[!
1b!
0+!
1*!
15"
0/"
1."
0("
1'"
02
11
09
18
1?
#150000
0!
0@
#155000
1!
1@
16"
b1011 7"
b1010 ;"
0="
b1011 ?"
1>"
1A"
b1011 B"
b10110 C"
1Y
0\!
1c!
1v!
1Q
1X
0[!
1Z!
1+!
1/"
1("
12
19
#160000
0!
0@
#165000
1!
1@
06"
b1100 7"
b10 <"
b0 <"
b1011 ;"
1="
b1100 ?"
0>"
b1 @"
0A"
b1100 B"
b11000 C"
0Y
1\!
0c!
0v!
0Q
0P
1O
0X
0W
1V
1u!
1[!
0b!
0+!
0*!
1)!
05"
0/"
0."
1-"
0("
0'"
1&"
02
01
10
09
08
17
0?
#170000
0!
0@
#175000
1!
1@
16"
b1101 7"
b1100 ;"
0="
b1101 ?"
1A"
b1101 B"
b11010 C"
1Y
0\!
1v!
1Q
1X
0[!
0Z!
1Y!
1+!
1/"
1("
12
19
#180000
0!
0@
#185000
1!
1@
06"
b1110 7"
b1 <"
b1101 ;"
1="
b1110 ?"
0A"
b1110 B"
b11100 C"
0Y
1\!
0v!
0Q
1P
0X
1W
1[!
1b!
0+!
1*!
15"
0/"
1."
0("
1'"
02
11
09
18
1?
#190000
0!
0@
#195000
1!
1@
16"
b1111 7"
b1110 ;"
0="
b1111 ?"
1A"
b1111 B"
b11110 C"
1Y
0\!
1v!
1Q
1X
0[!
1Z!
1+!
1/"
1("
12
19
#200000
0!
0@
#205000
1!
1@
06"
b10000 7"
b10 <"
b0 <"
b1111 ;"
1="
b10000 ?"
0A"
b10000 B"
b100000 C"
0Y
1\!
0v!
0Q
0P
0O
0N
1M
0X
0W
0V
0U
1T
1[!
0b!
0+!
0*!
0)!
0(!
1'!
05"
0/"
0."
0-"
0,"
1+"
0("
0'"
0&"
0%"
1$"
02
01
00
0/
1.
09
08
07
06
15
0?
#210000
0!
0@
#215000
1!
1@
16"
b10001 7"
b10000 ;"
0="
b10001 ?"
1A"
b10001 B"
b100010 C"
1Y
0\!
1v!
1Q
1X
0[!
0Z!
0Y!
0X!
1W!
1+!
1/"
1("
12
19
#220000
0!
0@
#225000
1!
1@
06"
b10010 7"
b1 <"
b10001 ;"
1="
b10010 ?"
0A"
b10010 B"
b100100 C"
0Y
1\!
0v!
0Q
1P
0X
1W
1[!
1b!
0+!
1*!
15"
0/"
1."
0("
1'"
02
11
09
18
1?
#230000
0!
0@
#235000
1!
1@
16"
b10011 7"
b10010 ;"
0="
b10011 ?"
1A"
b10011 B"
b100110 C"
1Y
0\!
1v!
1Q
1X
0[!
1Z!
1+!
1/"
1("
12
19
#240000
0!
0@
#245000
1!
1@
06"
b10100 7"
b10 <"
b0 <"
b10011 ;"
1="
b10100 ?"
0A"
b10100 B"
b101000 C"
0Y
1\!
0v!
0Q
0P
1O
0X
0W
1V
1[!
0b!
0+!
0*!
1)!
05"
0/"
0."
1-"
0("
0'"
1&"
02
01
10
09
08
17
0?
#250000
0!
0@
#255000
1!
1@
16"
b10101 7"
b10100 ;"
0="
b10101 ?"
1A"
b10101 B"
b101010 C"
1Y
0\!
1v!
1Q
1X
0[!
0Z!
1Y!
1+!
1/"
1("
12
19
#260000
0!
0@
#265000
1!
1@
06"
b10110 7"
b1 <"
b10101 ;"
1="
b10110 ?"
0A"
b10110 B"
b101100 C"
0Y
1\!
0v!
0Q
1P
0X
1W
1[!
1b!
0+!
1*!
15"
0/"
1."
0("
1'"
02
11
09
18
1?
#270000
0!
0@
#275000
1!
1@
16"
b10111 7"
b10110 ;"
0="
b10111 ?"
1A"
b10111 B"
b101110 C"
1Y
0\!
1v!
1Q
1X
0[!
1Z!
1+!
1/"
1("
12
19
#280000
0!
0@
#285000
1!
1@
06"
b11000 7"
b10 <"
b0 <"
b10111 ;"
1="
b11000 ?"
0A"
b11000 B"
b110000 C"
0Y
1\!
0v!
0Q
0P
0O
1N
0X
0W
0V
1U
1[!
0b!
0+!
0*!
0)!
1(!
05"
0/"
0."
0-"
1,"
0("
0'"
0&"
1%"
02
01
00
1/
09
08
07
16
0?
#290000
0!
0@
#295000
1!
1@
16"
b11001 7"
b11000 ;"
0="
b11001 ?"
1A"
b11001 B"
b110010 C"
1Y
0\!
1v!
1Q
1X
0[!
0Z!
0Y!
1X!
1+!
1/"
1("
12
19
#300000
0!
0@
#305000
1!
1@
06"
b11010 7"
b1 <"
b11001 ;"
1="
b11010 ?"
0A"
b11010 B"
b110100 C"
0Y
1\!
0v!
0Q
1P
0X
1W
1[!
1b!
0+!
1*!
15"
0/"
1."
0("
1'"
02
11
09
18
1?
#310000
0!
0@
#315000
1!
1@
16"
b11011 7"
b11010 ;"
0="
b11011 ?"
1A"
b11011 B"
b110110 C"
1Y
0\!
1v!
1Q
1X
0[!
1Z!
1+!
1/"
1("
12
19
#320000
0!
0@
#325000
1!
1@
06"
b11100 7"
b10 <"
b0 <"
b11011 ;"
1="
b11100 ?"
0A"
b11100 B"
b111000 C"
0Y
1\!
0v!
0Q
0P
1O
0X
0W
1V
1[!
0b!
0+!
0*!
1)!
05"
0/"
0."
1-"
0("
0'"
1&"
02
01
10
09
08
17
0?
#330000
0!
0@
#335000
1!
1@
16"
b11101 7"
b11100 ;"
0="
b11101 ?"
1A"
b11101 B"
b111010 C"
1Y
0\!
1v!
1Q
1X
0[!
0Z!
1Y!
1+!
1/"
1("
12
19
#340000
0!
0@
#345000
1!
1@
06"
b11110 7"
b1 <"
b11101 ;"
1="
b11110 ?"
0A"
b11110 B"
b111100 C"
0Y
1\!
0v!
0Q
1P
0X
1W
1[!
1b!
0+!
1*!
15"
0/"
1."
0("
1'"
02
11
09
18
1?
#350000
0!
0@
#355000
1!
1@
16"
b11111 7"
b11110 ;"
0="
b11111 ?"
1A"
b11111 B"
b111110 C"
1Y
0\!
1v!
1Q
1X
0[!
1Z!
1+!
1/"
1("
12
19
#360000
0!
0@
#365000
1!
1@
06"
b100000 7"
b10 <"
b0 <"
b11111 ;"
1="
b100000 ?"
0A"
b100000 B"
b1000000 C"
0Y
1\!
0v!
0Q
0P
0O
0N
0M
1L
0X
0W
0V
0U
0T
1S
1[!
0b!
0+!
0*!
0)!
0(!
0'!
1&!
05"
0/"
0."
0-"
0,"
0+"
1*"
0("
0'"
0&"
0%"
0$"
1#"
02
01
00
0/
0.
1-
09
08
07
06
05
14
0?
#370000
0!
0@
#375000
1!
1@
16"
b100001 7"
b100000 ;"
0="
b100001 ?"
1A"
b100001 B"
b1000010 C"
1Y
0\!
1v!
1Q
1X
0[!
0Z!
0Y!
0X!
0W!
1V!
1+!
1/"
1("
12
19
#380000
0!
0@
#385000
1!
1@
06"
b100010 7"
b1 <"
b100001 ;"
1="
b100010 ?"
0A"
b100010 B"
b1000100 C"
0Y
1\!
0v!
0Q
1P
0X
1W
1[!
1b!
0+!
1*!
15"
0/"
1."
0("
1'"
02
11
09
18
1?
#390000
0!
0@
#395000
1!
1@
16"
b100011 7"
b100010 ;"
0="
b100011 ?"
1A"
b100011 B"
b1000110 C"
1Y
0\!
1v!
1Q
1X
0[!
1Z!
1+!
1/"
1("
12
19
#400000
0!
0@
#405000
1!
1@
06"
b100100 7"
b10 <"
b0 <"
b100011 ;"
1="
b100100 ?"
0A"
b100100 B"
b1001000 C"
0Y
1\!
0v!
0Q
0P
1O
0X
0W
1V
1[!
0b!
0+!
0*!
1)!
05"
0/"
0."
1-"
0("
0'"
1&"
02
01
10
09
08
17
0?
#410000
0!
0@
#415000
1!
1@
16"
b100101 7"
b100100 ;"
0="
b100101 ?"
1A"
b100101 B"
b1001010 C"
1Y
0\!
1v!
1Q
1X
0[!
0Z!
1Y!
1+!
1/"
1("
12
19
#420000
0!
0@
#425000
1!
1@
06"
b100110 7"
b1 <"
b100101 ;"
1="
b100110 ?"
0A"
b100110 B"
b1001100 C"
0Y
1\!
0v!
0Q
1P
0X
1W
1[!
1b!
0+!
1*!
15"
0/"
1."
0("
1'"
02
11
09
18
1?
#430000
0!
0@
#435000
1!
1@
16"
b100111 7"
b100110 ;"
0="
b100111 ?"
1A"
b100111 B"
b1001110 C"
1Y
0\!
1v!
1Q
1X
0[!
1Z!
1+!
1/"
1("
12
19
#440000
0!
0@
#445000
1!
1@
06"
b101000 7"
b10 <"
b0 <"
b100111 ;"
1="
b101000 ?"
0A"
b101000 B"
b1010000 C"
0Y
1\!
0v!
0Q
0P
0O
1N
0X
0W
0V
1U
1[!
0b!
0+!
0*!
0)!
1(!
05"
0/"
0."
0-"
1,"
0("
0'"
0&"
1%"
02
01
00
1/
09
08
07
16
0?
#450000
0!
0@
#455000
1!
1@
16"
b101001 7"
b101000 ;"
0="
b101001 ?"
1A"
b101001 B"
b1010010 C"
1Y
0\!
1v!
1Q
1X
0[!
0Z!
0Y!
1X!
1+!
1/"
1("
12
19
#460000
0!
0@
